…
Let’s take a look at a ranked table of the absolute differences.

``` r
yukon_data %>% arrange(desc(diff_absolute))
```

    ## # A tibble: 60 x 10
    ##     year fifdj   qdj   mdj amatc   pice msstc amatc_gsom    diff diff_absolute
    ##    <dbl> <dbl> <dbl> <dbl> <dbl>  <dbl> <dbl>      <dbl>   <dbl>         <dbl>
    ##  1  2013    21    23    28  -9.2  0.7   -3.7       -8.63 -0.570         0.570 
    ##  2  2017    11    13    20  -0.7  0.453 -0.3       -0.83  0.13          0.13  
    ##  3  2012    22    26    32  -6.3  0.753 -3.5       -6.43  0.130         0.130 
    ##  4  2015    17    20    26  -5.9  0.557 -1.7       -5.79 -0.110         0.110 
    ##  5  2018    17    20    23  -3.2  0.13  -0.2       -3.12 -0.0800        0.0800
    ##  6  2019    17    19    23  -4.8  0.078 -0.02      -4.72 -0.0800        0.0800
    ##  7  1965    16    16    19  -6.4 NA      0.6       -6.47  0.0700        0.0700
    ##  8  2000    17    18    25  -5.9  0.555 -1.5       -5.97  0.0700        0.0700
    ##  9  1988     9    12    20  -5.1  0.542  0.7       -5.04 -0.0600        0.0600
    ## 10  2011    15    16    21  -7.9  0.52  -1.5       -7.85 -0.0500        0.0500
    ## # … with 50 more rows
…
